<svg width="62" height="62" viewBox="0 0 62 62" fill="none" xmlns="http://www.w3.org/2000/svg">
<path fill-rule="evenodd" clip-rule="evenodd" d="M33.2888 43.3821L40.5687 23.7462C41.1034 22.3047 39.7007 20.902 38.2592 21.4367L18.6155 28.7191C16.9596 29.334 17.0888 31.7158 18.8015 32.1472L27.652 34.3715L29.8608 43.1935C30.2922 44.9063 32.6766 45.038 33.2888 43.3821V43.3821Z" stroke="#9DC95E" stroke-width="3.875" stroke-linecap="round" stroke-linejoin="round"/>
<path d="M47.4404 14.5598C56.5201 23.6395 56.5201 38.3605 47.4404 47.4402C38.3607 56.5199 23.6396 56.5199 14.56 47.4402C5.48026 38.3605 5.48026 23.6394 14.56 14.5598C23.6396 5.48008 38.3607 5.48008 47.4404 14.5598" stroke="#9DC95E" stroke-width="3.875" stroke-linecap="round" stroke-linejoin="round"/>
</svg>
