<svg width="31" height="24" viewBox="0 0 31 24" fill="none" xmlns="http://www.w3.org/2000/svg">
<g clip-path="url(#clip0)">
<path d="M5.64119 23.947V22.3541C5.64119 21.7435 5.26866 21.3453 4.63003 21.3453C4.31072 21.3453 3.9648 21.4515 3.72531 21.7966C3.53905 21.5046 3.27295 21.3453 2.87381 21.3453C2.60771 21.3453 2.34162 21.4249 2.12875 21.717V21.3984H1.56995V23.947H2.12875V22.54C2.12875 22.0886 2.36823 21.8762 2.74076 21.8762C3.11329 21.8762 3.29956 22.1152 3.29956 22.54V23.947H3.85836V22.54C3.85836 22.0886 4.12445 21.8762 4.47037 21.8762C4.84291 21.8762 5.02917 22.1152 5.02917 22.54V23.947H5.64119ZM13.9167 21.3984H13.012V20.6285H12.4532V21.3984H11.9476V21.9028H12.4532V23.0709C12.4532 23.655 12.6927 24.0001 13.3313 24.0001C13.5708 24.0001 13.8369 23.9205 14.0232 23.8143L13.8635 23.3364C13.7038 23.4426 13.5176 23.4692 13.3845 23.4692C13.1184 23.4692 13.012 23.3099 13.012 23.0444V21.9028H13.9167V21.3984ZM18.6532 21.3453C18.3339 21.3453 18.121 21.5046 17.988 21.717V21.3984H17.4292V23.947H17.988V22.5134C17.988 22.0886 18.1742 21.8497 18.5202 21.8497C18.6266 21.8497 18.7596 21.8762 18.8661 21.9028L19.0257 21.3718C18.9193 21.3453 18.7596 21.3453 18.6532 21.3453ZM11.4953 21.6108C11.2292 21.4249 10.8566 21.3453 10.4575 21.3453C9.81887 21.3453 9.39312 21.6639 9.39312 22.1683C9.39312 22.5931 9.71243 22.832 10.2712 22.9116L10.5373 22.9382C10.83 22.9913 10.9897 23.0709 10.9897 23.2037C10.9897 23.3895 10.7768 23.5223 10.4043 23.5223C10.0317 23.5223 9.73905 23.3895 9.55278 23.2568L9.28668 23.6816C9.57939 23.8939 9.97853 24.0001 10.3777 24.0001C11.1227 24.0001 11.5485 23.655 11.5485 23.1771C11.5485 22.7258 11.2026 22.4869 10.6704 22.4072L10.4043 22.3807C10.1648 22.3541 9.97853 22.301 9.97853 22.1417C9.97853 21.9559 10.1648 21.8497 10.4575 21.8497C10.7768 21.8497 11.0961 21.9824 11.2558 22.0621L11.4953 21.6108ZM26.3433 21.3453C26.024 21.3453 25.8112 21.5046 25.6781 21.717V21.3984H25.1193V23.947H25.6781V22.5134C25.6781 22.0886 25.8644 21.8497 26.2103 21.8497C26.3167 21.8497 26.4498 21.8762 26.5562 21.9028L26.7159 21.3718C26.6094 21.3453 26.4498 21.3453 26.3433 21.3453ZM19.212 22.6727C19.212 23.4426 19.7442 24.0001 20.5691 24.0001C20.9416 24.0001 21.2077 23.9205 21.4738 23.7081L21.2077 23.2568C20.9948 23.4161 20.782 23.4957 20.5425 23.4957C20.0901 23.4957 19.7708 23.1771 19.7708 22.6727C19.7708 22.1948 20.0901 21.8762 20.5425 21.8497C20.782 21.8497 20.9948 21.9293 21.2077 22.0886L21.4738 21.6373C21.2077 21.4249 20.9416 21.3453 20.5691 21.3453C19.7442 21.3453 19.212 21.9028 19.212 22.6727ZM24.3742 22.6727V21.3984H23.8154V21.717C23.6292 21.478 23.3631 21.3453 23.0172 21.3453C22.2987 21.3453 21.7399 21.9028 21.7399 22.6727C21.7399 23.4426 22.2987 24.0001 23.0172 24.0001C23.3897 24.0001 23.6558 23.8674 23.8154 23.6285V23.947H24.3742V22.6727ZM22.3253 22.6727C22.3253 22.2214 22.618 21.8497 23.097 21.8497C23.5493 21.8497 23.8687 22.1948 23.8687 22.6727C23.8687 23.124 23.5493 23.4957 23.097 23.4957C22.618 23.4692 22.3253 23.124 22.3253 22.6727ZM15.6463 21.3453C14.9013 21.3453 14.3691 21.8762 14.3691 22.6727C14.3691 23.4692 14.9013 24.0001 15.673 24.0001C16.0455 24.0001 16.418 23.8939 16.7107 23.655L16.4446 23.2568C16.2317 23.4161 15.9657 23.5223 15.6996 23.5223C15.3536 23.5223 15.0077 23.363 14.9279 22.9116H16.8172C16.8172 22.832 16.8172 22.7789 16.8172 22.6993C16.8438 21.8762 16.3648 21.3453 15.6463 21.3453ZM15.6463 21.8231C15.9923 21.8231 16.2317 22.0355 16.285 22.4338H14.9545C15.0077 22.0886 15.2472 21.8231 15.6463 21.8231ZM29.5099 22.6727V20.3895H28.9511V21.717C28.7648 21.478 28.4987 21.3453 28.1528 21.3453C27.4343 21.3453 26.8755 21.9028 26.8755 22.6727C26.8755 23.4426 27.4343 24.0001 28.1528 24.0001C28.5253 24.0001 28.7914 23.8674 28.9511 23.6285V23.947H29.5099V22.6727ZM27.4609 22.6727C27.4609 22.2214 27.7536 21.8497 28.2326 21.8497C28.685 21.8497 29.0043 22.1948 29.0043 22.6727C29.0043 23.124 28.685 23.4957 28.2326 23.4957C27.7536 23.4692 27.4609 23.124 27.4609 22.6727ZM8.78111 22.6727V21.3984H8.22231V21.717C8.03604 21.478 7.76995 21.3453 7.42402 21.3453C6.70557 21.3453 6.14677 21.9028 6.14677 22.6727C6.14677 23.4426 6.70557 24.0001 7.42402 24.0001C7.79656 24.0001 8.06265 23.8674 8.22231 23.6285V23.947H8.78111V22.6727ZM6.70557 22.6727C6.70557 22.2214 6.99827 21.8497 7.47724 21.8497C7.9296 21.8497 8.24892 22.1948 8.24892 22.6727C8.24892 23.124 7.9296 23.4957 7.47724 23.4957C6.99827 23.4692 6.70557 23.124 6.70557 22.6727Z" fill="#AAB1B6"/>
<path d="M19.691 2.04419H11.3091V17.0707H19.691V2.04419Z" fill="#C0C5C9"/>
<path d="M11.8412 9.55752C11.8412 6.50443 13.2781 3.79646 15.4867 2.04425C13.8635 0.769915 11.8146 0 9.5794 0C4.28412 0 0 4.27434 0 9.55752C0 14.8407 4.28412 19.115 9.5794 19.115C11.8146 19.115 13.8635 18.3451 15.4867 17.0708C13.2781 15.3451 11.8412 12.6106 11.8412 9.55752Z" fill="#AAB1B6"/>
<path d="M30.9999 9.55752C30.9999 14.8407 26.7158 19.115 21.4206 19.115C19.1854 19.115 17.1365 18.3451 15.5133 17.0708C17.7485 15.3186 19.1588 12.6106 19.1588 9.55752C19.1588 6.50443 17.7219 3.79646 15.5133 2.04425C17.1365 0.769915 19.1854 0 21.4206 0C26.7158 0 30.9999 4.30089 30.9999 9.55752Z" fill="#D4D8DA"/>
</g>
<defs>
<clipPath id="clip0">
<rect width="31" height="24" fill="white"/>
</clipPath>
</defs>
</svg>
